[
    {
        "name": "abs_eta_uncalib",
        "shift": 0.9773842917149791,
        "scale": 0.6524423382666288,
        "default": 0.9773842917149791
    },
    {
        "name": "pt_uncalib",
        "shift": 44161.2711721846,
        "scale": 30202.90546871702,
        "default": 44161.2711721846
    },
    {
        "name": "JetFitter_mass",
        "shift": 1943.9842639757408,
        "scale": 1153.8095018611114,
        "default": 1943.9842717291306
    },
    {
        "name": "JetFitter_isDefaults",
        "shift": 0.0,
        "scale": 1.0,
        "default": null
    },
    {
        "name": "JetFitter_energyFraction",
        "shift": 0.2984195462610248,
        "scale": 0.3479578347877992,
        "default": 0
    },
    {
        "name": "JetFitter_significance3d",
        "shift": 9.095827638542131,
        "scale": 15.502682609552487,
        "default": 0
    },
    {
        "name": "JetFitter_nVTX",
        "shift": 0.03614543383981015,
        "scale": 0.972155084243924,
        "default": -1
    },
    {
        "name": "JetFitter_nSingleTracks",
        "shift": -0.06368924276006159,
        "scale": 0.9449559112064343,
        "default": -1
    },
    {
        "name": "JetFitter_nTracksAtVtx",
        "shift": 0.8274813479722563,
        "scale": 2.0646669735154815,
        "default": -1
    },
    {
        "name": "JetFitter_N2Tpair",
        "shift": 1.6060946837630696,
        "scale": 4.086360402743752,
        "default": -1
    },
    {
        "name": "JetFitter_deltaR",
        "shift": 0.06637658136205057,
        "scale": 0.055110466072925995,
        "default": 0.0663765810630261
    },
    {
        "name": "SV1_NGTinSvx",
        "shift": 0.8955197069188077,
        "scale": 2.65043569677504,
        "default": -1
    },
    {
        "name": "SV1_masssvx",
        "shift": 1926.2872461974516,
        "scale": 693.153383686243,
        "default": 1926.2872699542518
    },
    {
        "name": "SV1_isDefaults",
        "shift": 0.0,
        "scale": 1.0,
        "default": null
    },
    {
        "name": "SV1_N2Tpair",
        "shift": 1.1867747067440684,
        "scale": 4.248750092708296,
        "default": -1
    },
    {
        "name": "SV1_efracsvx",
        "shift": 0.2286709510704986,
        "scale": 0.32693730624772516,
        "default": 0
    },
    {
        "name": "SV1_deltaR",
        "shift": 0.06963346105358033,
        "scale": 0.11534160234055235,
        "default": 0.06963346027834065
    },
    {
        "name": "SV1_Lxy",
        "shift": 6.876059990033655,
        "scale": 5.650358361310606,
        "default": 6.876059959485985
    },
    {
        "name": "SV1_L3d",
        "shift": 12.48437389387857,
        "scale": 12.359848767909748,
        "default": 12.484373648378206
    },
    {
        "name": "SV1_significance3d",
        "shift": 27.228372747504864,
        "scale": 23.063892721119455,
        "default": 27.228373027154053
    },
    {
        "name": "IP2D_bu",
        "shift": 0.9804972637307976,
        "scale": 5.011675550858949,
        "default": 0.9804972638864379
    },
    {
        "name": "IP2D_isDefaults",
        "shift": 0.0,
        "scale": 1.0,
        "default": null
    },
    {
        "name": "IP2D_bc",
        "shift": -0.46375197885436015,
        "scale": 2.186109247208531,
        "default": -0.46375197890888
    },
    {
        "name": "IP2D_cu",
        "shift": 1.439367358059288,
        "scale": 2.9200407288089205,
        "default": 1.4393673575830137
    },
    {
        "name": "IP3D_bu",
        "shift": 1.2312753839216957,
        "scale": 5.618916804313073,
        "default": 1.2312753836129016
    },
    {
        "name": "IP3D_isDefaults",
        "shift": 0.0,
        "scale": 1.0,
        "default": null
    },
    {
        "name": "IP3D_bc",
        "shift": -0.4207205416125231,
        "scale": 2.5708798330126514,
        "default": -0.42072054157126926
    },
    {
        "name": "IP3D_cu",
        "shift": 1.6486914383899667,
        "scale": 3.23053252920484,
        "default": 1.6486914385637814
    },
    {
        "name": "secondaryVtx_nTrks",
        "shift": 1.200723799068072,
        "scale": 1.3764493602416916,
        "default": 0
    },
    {
        "name": "secondaryVtx_isDefaults",
        "shift": 0.0,
        "scale": 1.0,
        "default": null
    },
    {
        "name": "secondaryVtx_m",
        "shift": 753.9239481191096,
        "scale": 588.2008924698523,
        "default": 753.9239466617918
    },
    {
        "name": "secondaryVtx_E",
        "shift": 27607.437707215322,
        "scale": 33118.59238230488,
        "default": 27607.437852662853
    },
    {
        "name": "secondaryVtx_EFrac",
        "shift": 0.1549968824067423,
        "scale": 0.21251185221226468,
        "default": 0
    },
    {
        "name": "secondaryVtx_L3d",
        "shift": 18.666336428520445,
        "scale": 31.136713113407872,
        "default": 18.66633668749207
    },
    {
        "name": "secondaryVtx_Lxy",
        "shift": 9.64939882226342,
        "scale": 14.285090751404253,
        "default": 9.64939883528569
    },
    {
        "name": "secondaryVtx_max_trk_flightDirRelEta",
        "shift": 4.079928510227286,
        "scale": 0.829002244279555,
        "default": 4.079928588908413
    },
    {
        "name": "secondaryVtx_min_trk_flightDirRelEta",
        "shift": 3.478128425257752,
        "scale": 0.7421045780617487,
        "default": 3.4781284196636397
    },
    {
        "name": "secondaryVtx_avg_trk_flightDirRelEta",
        "shift": 3.7758946497542074,
        "scale": 0.7326086831739773,
        "default": 3.7758946552838837
    },
    {
        "name": "max_trk_flightDirRelEta",
        "shift": 4.901268019807624,
        "scale": 0.986484362407533,
        "default": 4.901268019807624
    },
    {
        "name": "min_trk_flightDirRelEta",
        "shift": 2.152569282592198,
        "scale": 0.5162259174089618,
        "default": 2.152569282592198
    },
    {
        "name": "avg_trk_flightDirRelEta",
        "shift": 3.1124653474341586,
        "scale": 0.6217334288453322,
        "default": 3.1124653474341586
    },
    {
        "name": "rnnip_pb",
        "shift": 0.3230977565100506,
        "scale": 0.3437588704863407,
        "default": 0.32309775647204986
    },
    {
        "name": "rnnip_pc",
        "shift": 0.1711128719864509,
        "scale": 0.11302856424468956,
        "default": 0.17111287201527095
    },
    {
        "name": "rnnip_pu",
        "shift": 0.4775315984483103,
        "scale": 0.3439537524777188,
        "default": 0.47753159839102166
    },
    {
        "name": "rnnip_ptau",
        "shift": 0.02825777311598543,
        "scale": 0.08777432288427843,
        "default": 0.028257773119342987
    },
    {
        "name": "rnnip_isDefaults",
        "shift": 0.0,
        "scale": 1.0,
        "default": null
    },
    {
        "name": "SMT_dR",
        "shift": 0.08732223510704405,
        "scale": 0.020147899512218324,
        "default": 0.08732223510292977
    },
    {
        "name": "SMT_mu_d0",
        "shift": -0.00015247831485811283,
        "scale": 0.33171295062021683,
        "default": -0.0001524783165436291
    },
    {
        "name": "SMT_qOverPratio",
        "shift": 13.292614974852135,
        "scale": 540.5429075582971,
        "default": 13.292615388912363
    },
    {
        "name": "SMT_pTrel",
        "shift": 3839.20801775553,
        "scale": 1195.9347230364879,
        "default": 3839.2081260309533
    },
    {
        "name": "SMT_scatneighsignif",
        "shift": 0.2114938649255454,
        "scale": 0.8164181425827626,
        "default": 0.2114938678662845
    },
    {
        "name": "SMT_mombalsignif",
        "shift": 0.5476812125131593,
        "scale": 0.3861413678898746,
        "default": 0.5476812134706517
    },
    {
        "name": "SMT_isDefaults",
        "shift": 0.0,
        "scale": 1.0,
        "default": null
    },
    {
        "name": "iprnn_pb",
        "shift": 0.3850424383898776,
        "scale": 0.36248583969218906,
        "default": 0.3850424383898776
    },
    {
        "name": "iprnn_pc",
        "shift": 0.1783448291583853,
        "scale": 0.14834794420498087,
        "default": 0.1783448291583853
    },
    {
        "name": "iprnn_pu",
        "shift": 0.4366127323892423,
        "scale": 0.36926121869554684,
        "default": 0.4366127323892423
    },
    {
        "name": "softMuon_pt",
        "shift": 13147.03614475045,
        "scale": 3331.78191412015,
        "default": 13147.036301225555
    },
    {
        "name": "softMuon_dR",
        "shift": 0.07728114729253896,
        "scale": 0.016209058010106223,
        "default": 0.07728114796031407
    },
    {
        "name": "softMuon_eta",
        "shift": 0.0050649675470909455,
        "scale": 0.3087381706871597,
        "default": 0.005064967455710836
    },
    {
        "name": "softMuon_phi",
        "shift": 0.01218196938124986,
        "scale": 0.48175892222221783,
        "default": 0.012181969666109205
    },
    {
        "name": "softMuon_qOverPratio",
        "shift": 2.235472918456093,
        "scale": 291.05321786216393,
        "default": 2.235472930243949
    },
    {
        "name": "softMuon_momentumBalanceSignificance",
        "shift": 0.5291557302538864,
        "scale": 0.35071405946647943,
        "default": 0.5291557178374702
    },
    {
        "name": "softMuon_scatteringNeighbourSignificance",
        "shift": 0.21269185878032862,
        "scale": 0.6947057527102557,
        "default": 0.21269186362341416
    },
    {
        "name": "softMuon_pTrel",
        "shift": 3494.9582515480024,
        "scale": 985.9066003318814,
        "default": 3494.9582462379108
    },
    {
        "name": "softMuon_ip3dD0",
        "shift": 0.19867345666475159,
        "scale": 0.15394616272075232,
        "default": 0.19867345348594234
    },
    {
        "name": "softMuon_ip3dZ0",
        "shift": 0.2359721812454397,
        "scale": 1.565401354492666,
        "default": 0.23597218495321415
    },
    {
        "name": "softMuon_ip3dD0Significance",
        "shift": 9.608301152304424,
        "scale": 5.410274030997319,
        "default": 9.60830101578717
    },
    {
        "name": "softMuon_ip3dZ0Significance",
        "shift": 4.2857828035031575,
        "scale": 21.201524952625117,
        "default": 4.285782665578017
    },
    {
        "name": "softMuon_ip3dD0Uncertainty",
        "shift": 0.021516779470846795,
        "scale": 0.0037684770975533856,
        "default": 0.021516779905822996
    },
    {
        "name": "softMuon_ip3dZ0Uncertainty",
        "shift": -0.02060491036115396,
        "scale": 1.5666519642597607,
        "default": -0.020604910782814137
    },
    {
        "name": "softMuon_isDefaults",
        "shift": 0.0,
        "scale": 1.0,
        "default": null
    },
    {
        "name": "smt_b",
        "shift": 0.6039260046103911,
        "scale": 0.06045949951558596,
        "default": 0.6039260259899856
    },
    {
        "name": "smt_c",
        "shift": 0.10246418425363127,
        "scale": 0.015726895989187636,
        "default": 0.10246418541534219
    },
    {
        "name": "smt_u",
        "shift": 0.10545075700442577,
        "scale": 0.055223302118275364,
        "default": 0.10545075905661162
    },
    {
        "name": "averageInteractionsPerCrossing",
        "shift": 38.99394428753769,
        "scale": 13.53789782767844,
        "default": 38.99394428753769
    },
    {
        "name": "actualInteractionsPerCrossing",
        "shift": 38.99394428753769,
        "scale": 13.53789782767844,
        "default": 38.99394428753769
    },
    {
        "name": "HadronConeExclTruthLabelID",
        "shift": 3.0,
        "scale": 2.160246899469287,
        "default": 3.0
    }
]