[
    {
        "default": 0.9186127583195656,
        "shift": 0.9186127583195656,
        "name": "abs_eta_uncalib",
        "scale": 0.633062306811462
    },
    {
        "default": 600496.0829130423,
        "shift": 600496.0829130423,
        "name": "pt_uncalib",
        "scale": 1030453.1683009082
    },
    {
        "default": 2630.11933664592,
        "shift": 2630.119353447695,
        "name": "JetFitter_mass",
        "scale": 1982.1785357604124
    },
    {
        "default": null,
        "shift": 0.0,
        "name": "JetFitter_isDefaults",
        "scale": 1.0
    },
    {
        "default": 0,
        "shift": 0.30407629035005246,
        "name": "JetFitter_energyFraction",
        "scale": 0.338661390214596
    },
    {
        "default": 0,
        "shift": 10.157013387967893,
        "name": "JetFitter_significance3d",
        "scale": 16.262966160175658
    },
    {
        "default": -1,
        "shift": 0.17364970835865892,
        "name": "JetFitter_nVTX",
        "scale": 0.994896518223362
    },
    {
        "default": -1,
        "shift": 0.18939869002559276,
        "name": "JetFitter_nSingleTracks",
        "scale": 1.1960449829655688
    },
    {
        "default": -1,
        "shift": 1.0199313038408646,
        "name": "JetFitter_nTracksAtVtx",
        "scale": 2.071852828106431
    },
    {
        "default": -1,
        "shift": 2.8510719729618317,
        "name": "JetFitter_N2Tpair",
        "scale": 7.360525560487047
    },
    {
        "default": 0.05888825922771752,
        "shift": 0.058888259593437034,
        "name": "JetFitter_deltaR",
        "scale": 0.0509666232291076
    },
    {
        "default": -1,
        "shift": 0.7776389076393014,
        "name": "SV1_NGTinSvx",
        "scale": 2.589054634703836
    },
    {
        "default": 2007.803684836255,
        "shift": 2007.803701494352,
        "name": "SV1_masssvx",
        "scale": 753.9151316552768
    },
    {
        "default": null,
        "shift": 0.0,
        "name": "SV1_isDefaults",
        "scale": 1.0
    },
    {
        "default": -1,
        "shift": 0.9784533573167334,
        "name": "SV1_N2Tpair",
        "scale": 3.913377863486898
    },
    {
        "default": 0,
        "shift": 0.19802886399418027,
        "name": "SV1_efracsvx",
        "scale": 0.30812431759027714
    },
    {
        "default": 0.06216897175081047,
        "shift": 0.06216897108277492,
        "name": "SV1_deltaR",
        "scale": 0.10103573538025662
    },
    {
        "default": 14.743863698167086,
        "shift": 14.743863928740632,
        "name": "SV1_Lxy",
        "scale": 13.916906430437797
    },
    {
        "default": 24.622214907902542,
        "shift": 24.62221513963277,
        "name": "SV1_L3d",
        "scale": 26.088197011576128
    },
    {
        "default": 29.760846475031553,
        "shift": 29.760846868579986,
        "name": "SV1_significance3d",
        "scale": 23.664993278324076
    },
    {
        "default": 0.10143754727756801,
        "shift": 0.10143754726476163,
        "name": "IP2D_bu",
        "scale": 5.121881211301146
    },
    {
        "default": null,
        "shift": 0.0,
        "name": "IP2D_isDefaults",
        "scale": 1.0
    },
    {
        "default": -1.1324552904171403,
        "shift": -1.1324552914419126,
        "name": "IP2D_bc",
        "scale": 2.6705920912003447
    },
    {
        "default": 1.2263589358891012,
        "shift": 1.2263589349882493,
        "name": "IP2D_cu",
        "scale": 2.7513238822982387
    },
    {
        "default": 0.2890734515455497,
        "shift": 0.2890734514373227,
        "name": "IP3D_bu",
        "scale": 5.759166861651677
    },
    {
        "default": null,
        "shift": 0.0,
        "name": "IP3D_isDefaults",
        "scale": 1.0
    },
    {
        "default": -1.1841856596150317,
        "shift": -1.1841856592203612,
        "name": "IP3D_bc",
        "scale": 3.126693052987077
    },
    {
        "default": 1.471070656579589,
        "shift": 1.4710706564591602,
        "name": "IP3D_cu",
        "scale": 3.071257701648583
    },
    {
        "default": 0,
        "shift": 1.2268224527884015,
        "name": "secondaryVtx_nTrks",
        "scale": 1.2713933540127198
    },
    {
        "default": null,
        "shift": 0.0,
        "name": "secondaryVtx_isDefaults",
        "scale": 1.0
    },
    {
        "default": 691.885780877457,
        "shift": 691.8857886796457,
        "name": "secondaryVtx_m",
        "scale": 770.7829835353067
    },
    {
        "default": 157196.63365204778,
        "shift": 157196.6360867672,
        "name": "secondaryVtx_E",
        "scale": 7705166.474893245
    },
    {
        "default": 0,
        "shift": 0.15191879829216812,
        "name": "secondaryVtx_EFrac",
        "scale": 0.2147304649658842
    },
    {
        "default": 22.719012589615126,
        "shift": 22.71901280766813,
        "name": "secondaryVtx_L3d",
        "scale": 36.68237918156227
    },
    {
        "default": 12.900755172492818,
        "shift": 12.900755087329804,
        "name": "secondaryVtx_Lxy",
        "scale": 18.633094153115465
    },
    {
        "default": 4.31902608199505,
        "shift": 4.319026051042204,
        "name": "secondaryVtx_max_trk_flightDirRelEta",
        "scale": 1.0406613280398673
    },
    {
        "default": 3.789288528092703,
        "shift": 3.7892885255508726,
        "name": "secondaryVtx_min_trk_flightDirRelEta",
        "scale": 0.9361245965270749
    },
    {
        "default": 4.052100164171586,
        "shift": 4.052100170249873,
        "name": "secondaryVtx_avg_trk_flightDirRelEta",
        "scale": 0.9446449385109772
    },
    {
        "default": 5.192728491632135,
        "shift": 5.192728491634227,
        "name": "max_trk_flightDirRelEta",
        "scale": 1.224021143584439
    },
    {
        "default": 2.338579604802129,
        "shift": 2.3385796048058842,
        "name": "min_trk_flightDirRelEta",
        "scale": 0.5237680476042981
    },
    {
        "default": 3.3732100784328876,
        "shift": 3.3732100784414154,
        "name": "avg_trk_flightDirRelEta",
        "scale": 0.7050304875688642
    },
    {
        "default": 0.3058849210072009,
        "shift": 0.30588492103340315,
        "name": "rnnip_pb",
        "scale": 0.311790612793726
    },
    {
        "default": 0.17328804994582972,
        "shift": 0.17328804993522617,
        "name": "rnnip_pc",
        "scale": 0.08924803432739394
    },
    {
        "default": 0.5019560158152643,
        "shift": 0.5019560156952451,
        "name": "rnnip_pu",
        "scale": 0.30080876801901135
    },
    {
        "default": 0.018871013229980322,
        "shift": 0.01887101322935642,
        "name": "rnnip_ptau",
        "scale": 0.0715916698473243
    },
    {
        "default": null,
        "shift": 0.0,
        "name": "rnnip_isDefaults",
        "scale": 1.0
    },
    {
        "default": 0.08849901748419463,
        "shift": 0.08849901712698896,
        "name": "SMT_dR",
        "scale": 0.032145377288120225
    },
    {
        "default": -0.022216261290468328,
        "shift": -0.022216260568912634,
        "name": "SMT_mu_d0",
        "scale": 0.4777943898507735
    },
    {
        "default": 22.200225967594328,
        "shift": 22.20022585184847,
        "name": "SMT_qOverPratio",
        "scale": 729.8988519028729
    },
    {
        "default": 108873.75018564923,
        "shift": 108873.75002939039,
        "name": "SMT_pTrel",
        "scale": 69877.18911901161
    },
    {
        "default": 0.5032721489585722,
        "shift": 0.5032721715413425,
        "name": "SMT_scatneighsignif",
        "scale": 1.43835599129542
    },
    {
        "default": 0.8590837050355294,
        "shift": 0.8590837109824433,
        "name": "SMT_mombalsignif",
        "scale": 0.6811406600639726
    },
    {
        "default": null,
        "shift": 0.0,
        "name": "SMT_isDefaults",
        "scale": 1.0
    },
    {
        "default": 0.38796544880461215,
        "shift": 0.38796544880461215,
        "name": "iprnn_pb",
        "scale": 0.34534858812667224
    },
    {
        "default": 0.16501630718891172,
        "shift": 0.16501630718891172,
        "name": "iprnn_pc",
        "scale": 0.11954216603710019
    },
    {
        "default": 0.44701821431364425,
        "shift": 0.44701821431364425,
        "name": "iprnn_pu",
        "scale": 0.34300318641574257
    },
    {
        "default": 40948.58271437868,
        "shift": 40948.582124510016,
        "name": "softMuon_pt",
        "scale": 192735.87710492936
    },
    {
        "default": 0.08219621073591436,
        "shift": 0.0821962129542681,
        "name": "softMuon_dR",
        "scale": 0.028482623340389923
    },
    {
        "default": -0.0014516581430689998,
        "shift": -0.0014516580929176703,
        "name": "softMuon_eta",
        "scale": 0.3391554523850449
    },
    {
        "default": 0.050681085360510005,
        "shift": 0.050681084526339765,
        "name": "softMuon_phi",
        "scale": 0.6666328517890835
    },
    {
        "default": 9.972422510894459,
        "shift": 9.97242258765622,
        "name": "softMuon_qOverPratio",
        "scale": 461.8233027605314
    },
    {
        "default": 0.90647675183592,
        "shift": 0.9064767382212465,
        "name": "softMuon_momentumBalanceSignificance",
        "scale": 0.649056233845868
    },
    {
        "default": 0.5233282803463578,
        "shift": 0.5233283010219052,
        "name": "softMuon_scatteringNeighbourSignificance",
        "scale": 1.3367617254144706
    },
    {
        "default": 106383.85969024329,
        "shift": 106383.85941803675,
        "name": "softMuon_pTrel",
        "scale": 64258.42732556827
    },
    {
        "default": 0.22824221681718052,
        "shift": 0.22824221826544122,
        "name": "softMuon_ip3dD0",
        "scale": 0.3718262412434643
    },
    {
        "default": 0.9303232637421078,
        "shift": 0.9303232459535921,
        "name": "softMuon_ip3dZ0",
        "scale": 4.23860411291094
    },
    {
        "default": 7.066639273707938,
        "shift": 7.066639402938602,
        "name": "softMuon_ip3dD0Significance",
        "scale": 8.617763280998888
    },
    {
        "default": 8.06390616407286,
        "shift": 8.06390577712068,
        "name": "softMuon_ip3dZ0Significance",
        "scale": 40.743653889370016
    },
    {
        "default": 0.024043819683796878,
        "shift": 0.02404381903787423,
        "name": "softMuon_ip3dD0Uncertainty",
        "scale": 0.007280016933803833
    },
    {
        "default": 0.017458573636517292,
        "shift": 0.017458573072857978,
        "name": "softMuon_ip3dZ0Uncertainty",
        "scale": 4.252514629546181
    },
    {
        "default": 0.8217525016495918,
        "shift": 0.821752490392853,
        "name": "smt_b",
        "scale": 0.07413908609266111
    },
    {
        "default": 0.1381949186832439,
        "shift": 0.13819491863943384,
        "name": "smt_c",
        "scale": 0.023033306547400677
    },
    {
        "default": 0.13771784214442598,
        "shift": 0.13771784293131553,
        "name": "smt_u",
        "scale": 0.05952970269539177
    },
    {
        "default": 38.922060717573515,
        "shift": 38.922060717573515,
        "name": "averageInteractionsPerCrossing",
        "scale": 13.501463662154109
    },
    {
        "default": 38.922060717573515,
        "shift": 38.922060717573515,
        "name": "actualInteractionsPerCrossing",
        "scale": 13.501463662154109
    },
    {
        "default": null,
        "shift": 0.0,
        "name": "softMuon_isDefaults",
        "scale": 1.0
    }
]
