{
  "model_name": "DL1-PFlow_new-taggers-22M",
  "scale_dict": "params_MC16D-ext_2018-PFlow_70-8M_mu.json",
  "train_file": "DL1Training-PFlow_extended-hybrid_MC16D_2018_70-22M_preprocessed-DL1-stats_file-merged.h5",
  "validation_file": "MC16d_hybrid_odd_100_PFlow-validation.h5",
  "variable_config": "configs/DL1_Variables.json",
  "NN_structure":  {
    "lr": 0.01,
    "batch_size": 20000,
    "activations": ["relu", "relu", "relu", "relu", "relu", "relu", "relu", "relu"],
    "units": [256, 128, 60, 48, 36, 24, 12, 6]
    }
}
