{
  "model_name": "DL1rmu-VR_track_jets-22M-3TeV_pT-MC16ade",
  "scale_dict": "params_MC16ade-2019-VRjets-3TeV_pT.json",
  "train_file": "DL1Training-VRjets_extended-hybrid_MC16ade_2019-21M_preprocessed-DL1rmu-stats-3TeV_pT_merged.h5",
  "validation_file": "MC16d_hybrid_odd_100_VRtrackJets-no-pTcuts-file_0.h5",
  "add_validation_file": "MC16d_hybrid_odd_0_ext-Zprime_VRtrackJets-no-pTcuts-stats-file_0.h5",
  "variable_config": "configs/DL1rmu-NN_Variables.json",
  "NN_structure":  {
    "lr": 0.01,
    "batch_size": 45000,
    "activations": ["relu", "relu", "relu", "relu", "relu", "relu", "relu", "relu"],
    "units": [256, 128, 60, 48, 36, 24, 12, 6]
    }
}
