{
  "model_name": "DL1r-VR_track_jets-22M-complex",
  "scale_dict": "params_MC16D-2019-VRjets.json",
  "train_file": "DL1rTraining-VRjets_extended-hybrid_MC16D_2019-21M_preprocessed-DL1-stats_file-merged.h5",
  "validation_file": "MC16d_hybrid_odd_100_VRtrackJets-no-pTcuts-file_0.h5",
  "variable_config": "configs/DL1r_Variables.json",
  "NN_structure":  {
    "lr": 0.01,
    "batch_size": 15000,
    "activations": ["relu", "relu", "relu", "relu", "relu", "relu", "relu", "relu", "relu"],
    "units": [512, 128, 96, 60, 48, 36, 24, 12, 6]
    }
}
